working with confounding variables
…
fitting several different models that account for confounding but only report the model that results in the smallest p-value.

N <- 25
g<- 1000

sim_data <- tibble(group = rep(1:g, each = N), x = rnorm(N * g), y = rnorm(N * g))

# calculate the correltatoin for each group
res <- sim_data |> 
  group_by(group) |> 
  summarise(r = cor(x, y)) |> 
  arrange(desc(r))
res

# A tibble: 1,000 × 2
   group     r
   <int> <dbl>
 1   297 0.551
 2   435 0.541
 3   730 0.540
 4   666 0.524
 5    90 0.512
 6   723 0.491
 7   561 0.490
 8   994 0.488
 9   312 0.488
10   775 0.485
# ℹ 990 more rows
…
