Data Importing Cleaning, and Data Visualization
…
familiar |> 
   slice_max(mean_fam)

# A tibble: 1 × 2
  word  mean_fam
  <fct>    <dbl>
1 5-0        4.2

Code

familiar |> 
   slice_min(mean_fam)

# A tibble: 25 × 2
   word              mean_fam
   <fct>                <dbl>
 1 ay yo trip               1
 2 beezy                    1
 3 break someone out        1
 4 catch the vapors         1
 5 crossroads               1
 6 crump                    1
 7 dap                      1
 8 dollar cab               1
 9 domino                   1
10 duckets                  1
# ℹ 15 more rows
…
